DT_HA07+08_SV_V2/multiplier_tb.vcd
$date
	Sun Dec 17 00:03:55 2023
$end
$version
	Icarus Verilog
$end
$timescale
	1ns
$end
$scope module multiplier_tb $end
$var wire 8 ! product [7:0] $end
$var reg 1 " ERROR $end
$var reg 8 # EXPECTED_PRODUCT [7:0] $end
$var reg 4 $ a [3:0] $end
$var reg 4 % b [3:0] $end
$scope module uut $end
$var wire 4 & a [3:0] $end
$var wire 4 ' b [3:0] $end
$var wire 8 ( temp2 [7:0] $end
$var wire 8 ) temp1 [7:0] $end
$var reg 8 * product [7:0] $end
$scope module add $end
$var wire 8 + a [7:0] $end
$var wire 8 , b [7:0] $end
$var wire 8 - sum [7:0] $end
$upscope $end
$scope module shift $end
$var wire 4 . in [3:0] $end
$var wire 2 / s [1:0] $end
$var wire 8 0 out [7:0] $end
$scope module mux2 $end
$var wire 8 1 m0 [7:0] $end
$var wire 8 2 m1 [7:0] $end
$var wire 8 3 m2 [7:0] $end
$var wire 8 4 m3 [7:0] $end
$var wire 2 5 s [1:0] $end
$var reg 8 6 out [7:0] $end
$upscope $end
$upscope $end
$upscope $end
$scope begin $ivl_for_loop0 $end
$var integer 32 7 i [31:0] $end
$scope begin $ivl_for_loop1 $end
$var integer 32 8 j [31:0] $end
$upscope $end
$upscope $end
$upscope $end
$enddefinitions $end
$comment Show the parameter values. $end
$dumpall
$end
#0
$dumpvars
b0 8
b0 7
b0 6
b1 5
b0 4
b0 3
b0 2
b0 1
b0 0
b1 /
b0 .
b0 -
b0 ,
b0 +
b0 *
b0 )
b0 (
b0 '
b0 &
b0 %
b0 $
b0 #
0"
b0 !
$end
#1
b10 (
b10 0
b10 6
b1 1
b10 2
b100 3
b1000 4
b1 .
b1 )
b1 -
b1 ,
b1 %
b1 '
b1 8
#2
b100 (
b100 0
b100 6
b10 1
b100 2
b1000 3
b10000 4
b10 .
b10 )
b10 -
b10 ,
b10 %
b10 '
b10 8
#3
b110 (
b110 0
b110 6
b11 1
b110 2
b1100 3
b11000 4
b11 .
b11 )
b11 -
b11 ,
b11 %
b11 '
b11 8
#4
b1000 (
b1000 0
b1000 6
b100 1
b1000 2
b10000 3
b100000 4
b100 .
b100 )
b100 -
b100 ,
b100 %
b100 '
b100 8
#5
b1010 (
b1010 0
b1010 6
b101 1
b1010 2
b10100 3
b101000 4
b101 .
b101 )
b101 -
b101 ,
b101 %
b101 '
b101 8
#6
b1100 (
b1100 0
b1100 6
b110 1
b1100 2
b11000 3
b110000 4
b110 .
b110 )
b110 -
b110 ,
b110 %
b110 '
b110 8
#7
b1110 (
b1110 0
b1110 6
b111 1
b1110 2
b11100 3
b111000 4
b111 .
b111 )
b111 -
b111 ,
b111 %
b111 '
b111 8
#8
b10000 (
b10000 0
b10000 6
b1000 1
b10000 2
b100000 3
b1000000 4
b1000 .
b1000 )
b1000 -
b1000 ,
b1000 %
b1000 '
b1000 8
#9
b10010 (
b10010 0
b10010 6
b1001 1
b10010 2
b100100 3
b1001000 4
b1001 .
b1001 )
b1001 -
b1001 ,
b1001 %
b1001 '
b1001 8
#10
b10100 (
b10100 0
b10100 6
b1010 1
b10100 2
b101000 3
b1010000 4
b1010 .
b1010 )
b1010 -
b1010 ,
b1010 %
b1010 '
b1010 8
#11
b10110 (
b10110 0
b10110 6
b1011 1
b10110 2
b101100 3
b1011000 4
b1011 .
b1011 )
b1011 -
b1011 ,
b1011 %
b1011 '
b1011 8
#12
b11000 (
b11000 0
b11000 6
b1100 1
b11000 2
b110000 3
b1100000 4
b1100 .
b1100 )
b1100 -
b1100 ,
b1100 %
b1100 '
b1100 8
#13
b11010 (
b11010 0
b11010 6
b1101 1
b11010 2
b110100 3
b1101000 4
b1101 .
b1101 )
b1101 -
b1101 ,
b1101 %
b1101 '
b1101 8
#14
b11100 (
b11100 0
b11100 6
b1110 1
b11100 2
b111000 3
b1110000 4
b1110 .
b1110 )
b1110 -
b1110 ,
b1110 %
b1110 '
b1110 8
#15
b11110 (
b11110 0
b11110 6
b1111 1
b11110 2
b111100 3
b1111000 4
b1111 .
b1111 )
b1111 -
b1111 ,
b1111 %
b1111 '
b1111 8
#16
b10 (
b10 0
b10 6
b1 1
b10 2
b100 3
b1000 4
b1 .
b0 ,
b0 %
b0 '
b1 )
b1 -
b1 +
b1 $
b1 &
b1 7
b0 8
#17
b100 (
b100 0
b100 6
b100 !
b100 *
b10 1
b100 2
b1000 3
b10000 4
b10 .
b1 #
b10 )
b10 -
b1 ,
b1 %
b1 '
b1 8
#18
b110 !
b110 *
b110 (
b110 0
b110 6
b11 1
b110 2
b1100 3
b11000 4
b11 .
b10 #
b11 )
b11 -
b10 ,
b10 %
b10 '
b10 8
1"
#19
b1000 !
b1000 *
b1000 (
b1000 0
b1000 6
b100 1
b1000 2
b10000 3
b100000 4
b100 .
b11 #
b100 )
b100 -
b11 ,
b11 %
b11 '
b11 8
#20
b1010 !
b1010 *
b1010 (
b1010 0
b1010 6
b101 1
b1010 2
b10100 3
b101000 4
b101 .
b100 #
b101 )
b101 -
b100 ,
b100 %
b100 '
b100 8
#21
b1100 !
b1100 *
b1100 (
b1100 0
b1100 6
b110 1
b1100 2
b11000 3
b110000 4
b110 .
b101 #
b110 )
b110 -
b101 ,
b101 %
b101 '
b101 8
#22
b1110 !
b1110 *
b1110 (
b1110 0
b1110 6
b111 1
b1110 2
b11100 3
b111000 4
b111 .
b110 #
b111 )
b111 -
b110 ,
b110 %
b110 '
b110 8
#23
b10000 !
b10000 *
b10000 (
b10000 0
b10000 6
b1000 1
b10000 2
b100000 3
b1000000 4
b1000 .
b111 #
b1000 )
b1000 -
b111 ,
b111 %
b111 '
b111 8
#24
b10010 !
b10010 *
b10010 (
b10010 0
b10010 6
b1001 1
b10010 2
b100100 3
b1001000 4
b1001 .
b1000 #
b1001 )
b1001 -
b1000 ,
b1000 %
b1000 '
b1000 8
#25
b10100 !
b10100 *
b10100 (
b10100 0
b10100 6
b1010 1
b10100 2
b101000 3
b1010000 4
b1010 .
b1001 #
b1010 )
b1010 -
b1001 ,
b1001 %
b1001 '
b1001 8
#26
b10110 !
b10110 *
b10110 (
b10110 0
b10110 6
b1011 1
b10110 2
b101100 3
b1011000 4
b1011 .
b1010 #
b1011 )
b1011 -
b1010 ,
b1010 %
b1010 '
b1010 8
#27
b11000 !
b11000 *
b11000 (
b11000 0
b11000 6
b1100 1
b11000 2
b110000 3
b1100000 4
b1100 .
b1011 #
b1100 )
b1100 -
b1011 ,
b1011 %
b1011 '
b1011 8
#28
b11010 !
b11010 *
b11010 (
b11010 0
b11010 6
b1101 1
b11010 2
b110100 3
b1101000 4
b1101 .
b1100 #
b1101 )
b1101 -
b1100 ,
b1100 %
b1100 '
b1100 8
#29
b11100 !
b11100 *
b11100 (
b11100 0
b11100 6
b1110 1
b11100 2
b111000 3
b1110000 4
b1110 .
b1101 #
b1110 )
b1110 -
b1101 ,
b1101 %
b1101 '
b1101 8
#30
b11110 !
b11110 *
b11110 (
b11110 0
b11110 6
b1111 1
b11110 2
b111100 3
b1111000 4
b1111 .
b1110 #
b1111 )
b1111 -
b1110 ,
b1110 %
b1110 '
b1110 8
#31
b0 !
b0 *
b0 (
b0 0
b0 6
b0 1
b0 2
b0 3
b0 4
b0 .
b1111 #
b10000 )
b10000 -
b1111 ,
b1111 %
b1111 '
b1111 8
#32
b100 (
b100 0
b100 6
b10 1
b100 2
b1000 3
b10000 4
b10 .
b0 #
b0 ,
b0 %
b0 '
b10 )
b10 -
b10 +
b10 $
b10 &
b10 7
b0 8
#33
b110 (
b110 0
b110 6
b110 !
b110 *
b11 1
b110 2
b1100 3
b11000 4
b11 .
b10 #
b11 )
b11 -
b1 ,
b1 %
b1 '
b1 8
#34
b1000 !
b1000 *
b1000 (
b1000 0
b1000 6
b100 1
b1000 2
b10000 3
b100000 4
b100 .
b100 #
b100 )
b100 -
b10 ,
b10 %
b10 '
b10 8
#35
b1010 !
b1010 *
b1010 (
b1010 0
b1010 6
b101 1
b1010 2
b10100 3
b101000 4
b101 .
b110 #
b101 )
b101 -
b11 ,
b11 %
b11 '
b11 8
#36
b1100 !
b1100 *
b1100 (
b1100 0
b1100 6
b110 1
b1100 2
b11000 3
b110000 4
b110 .
b1000 #
b110 )
b110 -
b100 ,
b100 %
b100 '
b100 8
#37
b1110 !
b1110 *
b1110 (
b1110 0
b1110 6
b111 1
b1110 2
b11100 3
b111000 4
b111 .
b1010 #
b111 )
b111 -
b101 ,
b101 %
b101 '
b101 8
#38
b10000 !
b10000 *
b10000 (
b10000 0
b10000 6
b1000 1
b10000 2
b100000 3
b1000000 4
b1000 .
b1100 #
b1000 )
b1000 -
b110 ,
b110 %
b110 '
b110 8
#39
b10010 !
b10010 *
b10010 (
b10010 0
b10010 6
b1001 1
b10010 2
b100100 3
b1001000 4
b1001 .
b1110 #
b1001 )
b1001 -
b111 ,
b111 %
b111 '
b111 8
#40
b10100 !
b10100 *
b10100 (
b10100 0
b10100 6
b1010 1
b10100 2
b101000 3
b1010000 4
b1010 .
b10000 #
b1010 )
b1010 -
b1000 ,
b1000 %
b1000 '
b1000 8
#41
b10110 !
b10110 *
b10110 (
b10110 0
b10110 6
b1011 1
b10110 2
b101100 3
b1011000 4
b1011 .
b10010 #
b1011 )
b1011 -
b1001 ,
b1001 %
b1001 '
b1001 8
#42
b11000 !
b11000 *
b11000 (
b11000 0
b11000 6
b1100 1
b11000 2
b110000 3
b1100000 4
b1100 .
b10100 #
b1100 )
b1100 -
b1010 ,
b1010 %
b1010 '
b1010 8
#43
b11010 !
b11010 *
b11010 (
b11010 0
b11010 6
b1101 1
b11010 2
b110100 3
b1101000 4
b1101 .
b10110 #
b1101 )
b1101 -
b1011 ,
b1011 %
b1011 '
b1011 8
#44
b11100 !
b11100 *
b11100 (
b11100 0
b11100 6
b1110 1
b11100 2
b111000 3
b1110000 4
b1110 .
b11000 #
b1110 )
b1110 -
b1100 ,
b1100 %
b1100 '
b1100 8
#45
b11110 !
b11110 *
b11110 (
b11110 0
b11110 6
b1111 1
b11110 2
b111100 3
b1111000 4
b1111 .
b11010 #
b1111 )
b1111 -
b1101 ,
b1101 %
b1101 '
b1101 8
#46
b0 !
b0 *
b0 (
b0 0
b0 6
b0 1
b0 2
b0 3
b0 4
b0 .
b11100 #
b10000 )
b10000 -
b1110 ,
b1110 %
b1110 '
b1110 8
#47
b10 !
b10 *
b10 (
b10 0
b10 6
b1 1
b10 2
b100 3
b1000 4
b1 .
b11110 #
b10001 )
b10001 -
b1111 ,
b1111 %
b1111 '
b1111 8
#48
b110 (
b110 0
b110 6
b0 !
b0 *
b11 1
b110 2
b1100 3
b11000 4
b11 .
b0 #
b0 ,
b0 %
b0 '
b11 )
b11 -
b11 +
b11 $
b11 &
b11 7
b0 8
#49
b1000 (
b1000 0
b1000 6
b1000 !
b1000 *
b100 1
b1000 2
b10000 3
b100000 4
b100 .
b11 #
b100 )
b100 -
b1 ,
b1 %
b1 '
b1 8
#50
b1010 !
b1010 *
b1010 (
b1010 0
b1010 6
b101 1
b1010 2
b10100 3
b101000 4
b101 .
b110 #
b101 )
b101 -
b10 ,
b10 %
b10 '
b10 8
#51
b1100 !
b1100 *
b1100 (
b1100 0
b1100 6
b110 1
b1100 2
b11000 3
b110000 4
b110 .
b1001 #
b110 )
b110 -
b11 ,
b11 %
b11 '
b11 8
#52
b1110 !
b1110 *
b1110 (
b1110 0
b1110 6
b111 1
b1110 2
b11100 3
b111000 4
b111 .
b1100 #
b111 )
b111 -
b100 ,
b100 %
b100 '
b100 8
#53
b10000 !
b10000 *
b10000 (
b10000 0
b10000 6
b1000 1
b10000 2
b100000 3
b1000000 4
b1000 .
b1111 #
b1000 )
b1000 -
b101 ,
b101 %
b101 '
b101 8
#54
b10010 !
b10010 *
b10010 (
b10010 0
b10010 6
b1001 1
b10010 2
b100100 3
b1001000 4
b1001 .
b10010 #
b1001 )
b1001 -
b110 ,
b110 %
b110 '
b110 8
#55
b10100 !
b10100 *
b10100 (
b10100 0
b10100 6
b1010 1
b10100 2
b101000 3
b1010000 4
b1010 .
b10101 #
b1010 )
b1010 -
b111 ,
b111 %
b111 '
b111 8
#56
b10110 !
b10110 *
b10110 (
b10110 0
b10110 6
b1011 1
b10110 2
b101100 3
b1011000 4
b1011 .
b11000 #
b1011 )
b1011 -
b1000 ,
b1000 %
b1000 '
b1000 8
#57
b11000 !
b11000 *
b11000 (
b11000 0
b11000 6
b1100 1
b11000 2
b110000 3
b1100000 4
b1100 .
b11011 #
b1100 )
b1100 -
b1001 ,
b1001 %
b1001 '
b1001 8
#58
b11010 !
b11010 *
b11010 (
b11010 0
b11010 6
b1101 1
b11010 2
b110100 3
b1101000 4
b1101 .
b11110 #
b1101 )
b1101 -
b1010 ,
b1010 %
b1010 '
b1010 8
#59
b11100 !
b11100 *
b11100 (
b11100 0
b11100 6
b1110 1
b11100 2
b111000 3
b1110000 4
b1110 .
b100001 #
b1110 )
b1110 -
b1011 ,
b1011 %
b1011 '
b1011 8
#60
b11110 !
b11110 *
b11110 (
b11110 0
b11110 6
b1111 1
b11110 2
b111100 3
b1111000 4
b1111 .
b100100 #
b1111 )
b1111 -
b1100 ,
b1100 %
b1100 '
b1100 8
#61
b0 !
b0 *
b0 (
b0 0
b0 6
b0 1
b0 2
b0 3
b0 4
b0 .
b100111 #
b10000 )
b10000 -
b1101 ,
b1101 %
b1101 '
b1101 8
#62
b10 !
b10 *
b10 (
b10 0
b10 6
b1 1
b10 2
b100 3
b1000 4
b1 .
b101010 #
b10001 )
b10001 -
b1110 ,
b1110 %
b1110 '
b1110 8
#63
b100 !
b100 *
b100 (
b100 0
b100 6
b10 1
b100 2
b1000 3
b10000 4
b10 .
b101101 #
b10010 )
b10010 -
b1111 ,
b1111 %
b1111 '
b1111 8
#64
b1000 (
b1000 0
b1000 6
b0 !
b0 *
b100 1
b1000 2
b10000 3
b100000 4
b100 .
b0 #
b0 ,
b0 %
b0 '
b100 )
b100 -
b100 +
b100 $
b100 &
b100 7
b0 8
#65
b1010 (
b1010 0
b1010 6
b1010 !
b1010 *
b101 1
b1010 2
b10100 3
b101000 4
b101 .
b100 #
b101 )
b101 -
b1 ,
b1 %
b1 '
b1 8
#66
b1100 !
b1100 *
b1100 (
b1100 0
b1100 6
b110 1
b1100 2
b11000 3
b110000 4
b110 .
b1000 #
b110 )
b110 -
b10 ,
b10 %
b10 '
b10 8
#67
b1110 !
b1110 *
b1110 (
b1110 0
b1110 6
b111 1
b1110 2
b11100 3
b111000 4
b111 .
b1100 #
b111 )
b111 -
b11 ,
b11 %
b11 '
b11 8
#68
b10000 !
b10000 *
b10000 (
b10000 0
b10000 6
b1000 1
b10000 2
b100000 3
b1000000 4
b1000 .
b10000 #
b1000 )
b1000 -
b100 ,
b100 %
b100 '
b100 8
#69
b10010 !
b10010 *
b10010 (
b10010 0
b10010 6
b1001 1
b10010 2
b100100 3
b1001000 4
b1001 .
b10100 #
b1001 )
b1001 -
b101 ,
b101 %
b101 '
b101 8
#70
b10100 !
b10100 *
b10100 (
b10100 0
b10100 6
b1010 1
b10100 2
b101000 3
b1010000 4
b1010 .
b11000 #
b1010 )
b1010 -
b110 ,
b110 %
b110 '
b110 8
#71
b10110 !
b10110 *
b10110 (
b10110 0
b10110 6
b1011 1
b10110 2
b101100 3
b1011000 4
b1011 .
b11100 #
b1011 )
b1011 -
b111 ,
b111 %
b111 '
b111 8
#72
b11000 !
b11000 *
b11000 (
b11000 0
b11000 6
b1100 1
b11000 2
b110000 3
b1100000 4
b1100 .
b100000 #
b1100 )
b1100 -
b1000 ,
b1000 %
b1000 '
b1000 8
#73
b11010 !
b11010 *
b11010 (
b11010 0
b11010 6
b1101 1
b11010 2
b110100 3
b1101000 4
b1101 .
b100100 #
b1101 )
b1101 -
b1001 ,
b1001 %
b1001 '
b1001 8
#74
b11100 !
b11100 *
b11100 (
b11100 0
b11100 6
b1110 1
b11100 2
b111000 3
b1110000 4
b1110 .
b101000 #
b1110 )
b1110 -
b1010 ,
b1010 %
b1010 '
b1010 8
#75
b11110 !
b11110 *
b11110 (
b11110 0
b11110 6
b1111 1
b11110 2
b111100 3
b1111000 4
b1111 .
b101100 #
b1111 )
b1111 -
b1011 ,
b1011 %
b1011 '
b1011 8
#76
b0 !
b0 *
b0 (
b0 0
b0 6
b0 1
b0 2
b0 3
b0 4
b0 .
b110000 #
b10000 )
b10000 -
b1100 ,
b1100 %
b1100 '
b1100 8
#77
b10 !
b10 *
b10 (
b10 0
b10 6
b1 1
b10 2
b100 3
b1000 4
b1 .
b110100 #
b10001 )
b10001 -
b1101 ,
b1101 %
b1101 '
b1101 8
#78
b100 !
b100 *
b100 (
b100 0
b100 6
b10 1
b100 2
b1000 3
b10000 4
b10 .
b111000 #
b10010 )
b10010 -
b1110 ,
b1110 %
b1110 '
b1110 8
#79
b110 !
b110 *
b110 (
b110 0
b110 6
b11 1
b110 2
b1100 3
b11000 4
b11 .
b111100 #
b10011 )
b10011 -
b1111 ,
b1111 %
b1111 '
b1111 8
#80
b1010 (
b1010 0
b1010 6
b0 !
b0 *
b101 1
b1010 2
b10100 3
b101000 4
b101 .
b0 #
b0 ,
b0 %
b0 '
b101 )
b101 -
b101 +
b101 $
b101 &
b101 7
b0 8
#81
b1100 (
b1100 0
b1100 6
b1100 !
b1100 *
b110 1
b1100 2
b11000 3
b110000 4
b110 .
b101 #
b110 )
b110 -
b1 ,
b1 %
b1 '
b1 8
#82
b1110 !
b1110 *
b1110 (
b1110 0
b1110 6
b111 1
b1110 2
b11100 3
b111000 4
b111 .
b1010 #
b111 )
b111 -
b10 ,
b10 %
b10 '
b10 8
#83
b10000 !
b10000 *
b10000 (
b10000 0
b10000 6
b1000 1
b10000 2
b100000 3
b1000000 4
b1000 .
b1111 #
b1000 )
b1000 -
b11 ,
b11 %
b11 '
b11 8
#84
b10010 !
b10010 *
b10010 (
b10010 0
b10010 6
b1001 1
b10010 2
b100100 3
b1001000 4
b1001 .
b10100 #
b1001 )
b1001 -
b100 ,
b100 %
b100 '
b100 8
#85
b10100 !
b10100 *
b10100 (
b10100 0
b10100 6
b1010 1
b10100 2
b101000 3
b1010000 4
b1010 .
b11001 #
b1010 )
b1010 -
b101 ,
b101 %
b101 '
b101 8
#86
b10110 !
b10110 *
b10110 (
b10110 0
b10110 6
b1011 1
b10110 2
b101100 3
b1011000 4
b1011 .
b11110 #
b1011 )
b1011 -
b110 ,
b110 %
b110 '
b110 8
#87
b11000 !
b11000 *
b11000 (
b11000 0
b11000 6
b1100 1
b11000 2
b110000 3
b1100000 4
b1100 .
b100011 #
b1100 )
b1100 -
b111 ,
b111 %
b111 '
b111 8
#88
b11010 !
b11010 *
b11010 (
b11010 0
b11010 6
b1101 1
b11010 2
b110100 3
b1101000 4
b1101 .
b101000 #
b1101 )
b1101 -
b1000 ,
b1000 %
b1000 '
b1000 8
#89
b11100 !
b11100 *
b11100 (
b11100 0
b11100 6
b1110 1
b11100 2
b111000 3
b1110000 4
b1110 .
b101101 #
b1110 )
b1110 -
b1001 ,
b1001 %
b1001 '
b1001 8
#90
b11110 !
b11110 *
b11110 (
b11110 0
b11110 6
b1111 1
b11110 2
b111100 3
b1111000 4
b1111 .
b110010 #
b1111 )
b1111 -
b1010 ,
b1010 %
b1010 '
b1010 8
#91
b0 !
b0 *
b0 (
b0 0
b0 6
b0 1
b0 2
b0 3
b0 4
b0 .
b110111 #
b10000 )
b10000 -
b1011 ,
b1011 %
b1011 '
b1011 8
#92
b10 !
b10 *
b10 (
b10 0
b10 6
b1 1
b10 2
b100 3
b1000 4
b1 .
b111100 #
b10001 )
b10001 -
b1100 ,
b1100 %
b1100 '
b1100 8
#93
b100 !
b100 *
b100 (
b100 0
b100 6
b10 1
b100 2
b1000 3
b10000 4
b10 .
b1000001 #
b10010 )
b10010 -
b1101 ,
b1101 %
b1101 '
b1101 8
#94
b110 !
b110 *
b110 (
b110 0
b110 6
b11 1
b110 2
b1100 3
b11000 4
b11 .
b1000110 #
b10011 )
b10011 -
b1110 ,
b1110 %
b1110 '
b1110 8
#95
b1000 !
b1000 *
b1000 (
b1000 0
b1000 6
b100 1
b1000 2
b10000 3
b100000 4
b100 .
b1001011 #
b10100 )
b10100 -
b1111 ,
b1111 %
b1111 '
b1111 8
#96
b1100 (
b1100 0
b1100 6
b0 !
b0 *
b110 1
b1100 2
b11000 3
b110000 4
b110 .
b0 #
b0 ,
b0 %
b0 '
b110 )
b110 -
b110 +
b110 $
b110 &
b110 7
b0 8
#97
b1110 (
b1110 0
b1110 6
b1110 !
b1110 *
b111 1
b1110 2
b11100 3
b111000 4
b111 .
b110 #
b111 )
b111 -
b1 ,
b1 %
b1 '
b1 8
#98
b10000 !
b10000 *
b10000 (
b10000 0
b10000 6
b1000 1
b10000 2
b100000 3
b1000000 4
b1000 .
b1100 #
b1000 )
b1000 -
b10 ,
b10 %
b10 '
b10 8
#99
b10010 !
b10010 *
b10010 (
b10010 0
b10010 6
b1001 1
b10010 2
b100100 3
b1001000 4
b1001 .
b10010 #
b1001 )
b1001 -
b11 ,
b11 %
b11 '
b11 8
#100
b10100 !
b10100 *
b10100 (
b10100 0
b10100 6
b1010 1
b10100 2
b101000 3
b1010000 4
b1010 .
b11000 #
b1010 )
b1010 -
b100 ,
b100 %
b100 '
b100 8
#101
b10110 !
b10110 *
b10110 (
b10110 0
b10110 6
b1011 1
b10110 2
b101100 3
b1011000 4
b1011 .
b11110 #
b1011 )
b1011 -
b101 ,
b101 %
b101 '
b101 8
#102
b11000 !
b11000 *
b11000 (
b11000 0
b11000 6
b1100 1
b11000 2
b110000 3
b1100000 4
b1100 .
b100100 #
b1100 )
b1100 -
b110 ,
b110 %
b110 '
b110 8
#103
b11010 !
b11010 *
b11010 (
b11010 0
b11010 6
b1101 1
b11010 2
b110100 3
b1101000 4
b1101 .
b101010 #
b1101 )
b1101 -
b111 ,
b111 %
b111 '
b111 8
#104
b11100 !
b11100 *
b11100 (
b11100 0
b11100 6
b1110 1
b11100 2
b111000 3
b1110000 4
b1110 .
b110000 #
b1110 )
b1110 -
b1000 ,
b1000 %
b1000 '
b1000 8
#105
b11110 !
b11110 *
b11110 (
b11110 0
b11110 6
b1111 1
b11110 2
b111100 3
b1111000 4
b1111 .
b110110 #
b1111 )
b1111 -
b1001 ,
b1001 %
b1001 '
b1001 8
#106
b0 !
b0 *
b0 (
b0 0
b0 6
b0 1
b0 2
b0 3
b0 4
b0 .
b111100 #
b10000 )
b10000 -
b1010 ,
b1010 %
b1010 '
b1010 8
#107
b10 !
b10 *
b10 (
b10 0
b10 6
b1 1
b10 2
b100 3
b1000 4
b1 .
b1000010 #
b10001 )
b10001 -
b1011 ,
b1011 %
b1011 '
b1011 8
#108
b100 !
b100 *
b100 (
b100 0
b100 6
b10 1
b100 2
b1000 3
b10000 4
b10 .
b1001000 #
b10010 )
b10010 -
b1100 ,
b1100 %
b1100 '
b1100 8
#109
b110 !
b110 *
b110 (
b110 0
b110 6
b11 1
b110 2
b1100 3
b11000 4
b11 .
b1001110 #
b10011 )
b10011 -
b1101 ,
b1101 %
b1101 '
b1101 8
#110
b1000 !
b1000 *
b1000 (
b1000 0
b1000 6
b100 1
b1000 2
b10000 3
b100000 4
b100 .
b1010100 #
b10100 )
b10100 -
b1110 ,
b1110 %
b1110 '
b1110 8
#111
b1010 !
b1010 *
b1010 (
b1010 0
b1010 6
b101 1
b1010 2
b10100 3
b101000 4
b101 .
b1011010 #
b10101 )
b10101 -
b1111 ,
b1111 %
b1111 '
b1111 8
#112
b1110 (
b1110 0
b1110 6
b0 !
b0 *
b111 1
b1110 2
b11100 3
b111000 4
b111 .
b0 #
b0 ,
b0 %
b0 '
b111 )
b111 -
b111 +
b111 $
b111 &
b111 7
b0 8
#113
b10000 (
b10000 0
b10000 6
b10000 !
b10000 *
b1000 1
b10000 2
b100000 3
b1000000 4
b1000 .
b111 #
b1000 )
b1000 -
b1 ,
b1 %
b1 '
b1 8
#114
b10010 !
b10010 *
b10010 (
b10010 0
b10010 6
b1001 1
b10010 2
b100100 3
b1001000 4
b1001 .
b1110 #
b1001 )
b1001 -
b10 ,
b10 %
b10 '
b10 8
#115
b10100 !
b10100 *
b10100 (
b10100 0
b10100 6
b1010 1
b10100 2
b101000 3
b1010000 4
b1010 .
b10101 #
b1010 )
b1010 -
b11 ,
b11 %
b11 '
b11 8
#116
b10110 !
b10110 *
b10110 (
b10110 0
b10110 6
b1011 1
b10110 2
b101100 3
b1011000 4
b1011 .
b11100 #
b1011 )
b1011 -
b100 ,
b100 %
b100 '
b100 8
#117
b11000 !
b11000 *
b11000 (
b11000 0
b11000 6
b1100 1
b11000 2
b110000 3
b1100000 4
b1100 .
b100011 #
b1100 )
b1100 -
b101 ,
b101 %
b101 '
b101 8
#118
b11010 !
b11010 *
b11010 (
b11010 0
b11010 6
b1101 1
b11010 2
b110100 3
b1101000 4
b1101 .
b101010 #
b1101 )
b1101 -
b110 ,
b110 %
b110 '
b110 8
#119
b11100 !
b11100 *
b11100 (
b11100 0
b11100 6
b1110 1
b11100 2
b111000 3
b1110000 4
b1110 .
b110001 #
b1110 )
b1110 -
b111 ,
b111 %
b111 '
b111 8
#120
b11110 !
b11110 *
b11110 (
b11110 0
b11110 6
b1111 1
b11110 2
b111100 3
b1111000 4
b1111 .
b111000 #
b1111 )
b1111 -
b1000 ,
b1000 %
b1000 '
b1000 8
#121
b0 !
b0 *
b0 (
b0 0
b0 6
b0 1
b0 2
b0 3
b0 4
b0 .
b111111 #
b10000 )
b10000 -
b1001 ,
b1001 %
b1001 '
b1001 8
#122
b10 !
b10 *
b10 (
b10 0
b10 6
b1 1
b10 2
b100 3
b1000 4
b1 .
b1000110 #
b10001 )
b10001 -
b1010 ,
b1010 %
b1010 '
b1010 8
#123
b100 !
b100 *
b100 (
b100 0
b100 6
b10 1
b100 2
b1000 3
b10000 4
b10 .
b1001101 #
b10010 )
b10010 -
b1011 ,
b1011 %
b1011 '
b1011 8
#124
b110 !
b110 *
b110 (
b110 0
b110 6
b11 1
b110 2
b1100 3
b11000 4
b11 .
b1010100 #
b10011 )
b10011 -
b1100 ,
b1100 %
b1100 '
b1100 8
#125
b1000 !
b1000 *
b1000 (
b1000 0
b1000 6
b100 1
b1000 2
b10000 3
b100000 4
b100 .
b1011011 #
b10100 )
b10100 -
b1101 ,
b1101 %
b1101 '
b1101 8
#126
b1010 !
b1010 *
b1010 (
b1010 0
b1010 6
b101 1
b1010 2
b10100 3
b101000 4
b101 .
b1100010 #
b10101 )
b10101 -
b1110 ,
b1110 %
b1110 '
b1110 8
#127
b1100 !
b1100 *
b1100 (
b1100 0
b1100 6
b110 1
b1100 2
b11000 3
b110000 4
b110 .
b1101001 #
b10110 )
b10110 -
b1111 ,
b1111 %
b1111 '
b1111 8
#128
b10000 (
b10000 0
b10000 6
b0 !
b0 *
b1000 1
b10000 2
b100000 3
b1000000 4
b1000 .
b0 #
b0 ,
b0 %
b0 '
b1000 )
b1000 -
b1000 +
b1000 $
b1000 &
b1000 7
b0 8
#129
b10010 (
b10010 0
b10010 6
b10010 !
b10010 *
b1001 1
b10010 2
b100100 3
b1001000 4
b1001 .
b1000 #
b1001 )
b1001 -
b1 ,
b1 %
b1 '
b1 8
#130
b10100 !
b10100 *
b10100 (
b10100 0
b10100 6
b1010 1
b10100 2
b101000 3
b1010000 4
b1010 .
b10000 #
b1010 )
b1010 -
b10 ,
b10 %
b10 '
b10 8
#131
b10110 !
b10110 *
b10110 (
b10110 0
b10110 6
b1011 1
b10110 2
b101100 3
b1011000 4
b1011 .
b11000 #
b1011 )
b1011 -
b11 ,
b11 %
b11 '
b11 8
#132
b11000 !
b11000 *
b11000 (
b11000 0
b11000 6
b1100 1
b11000 2
b110000 3
b1100000 4
b1100 .
b100000 #
b1100 )
b1100 -
b100 ,
b100 %
b100 '
b100 8
#133
b11010 !
b11010 *
b11010 (
b11010 0
b11010 6
b1101 1
b11010 2
b110100 3
b1101000 4
b1101 .
b101000 #
b1101 )
b1101 -
b101 ,
b101 %
b101 '
b101 8
#134
b11100 !
b11100 *
b11100 (
b11100 0
b11100 6
b1110 1
b11100 2
b111000 3
b1110000 4
b1110 .
b110000 #
b1110 )
b1110 -
b110 ,
b110 %
b110 '
b110 8
#135
b11110 !
b11110 *
b11110 (
b11110 0
b11110 6
b1111 1
b11110 2
b111100 3
b1111000 4
b1111 .
b111000 #
b1111 )
b1111 -
b111 ,
b111 %
b111 '
b111 8
#136
b0 !
b0 *
b0 (
b0 0
b0 6
b0 1
b0 2
b0 3
b0 4
b0 .
b1000000 #
b10000 )
b10000 -
b1000 ,
b1000 %
b1000 '
b1000 8
#137
b10 !
b10 *
b10 (
b10 0
b10 6
b1 1
b10 2
b100 3
b1000 4
b1 .
b1001000 #
b10001 )
b10001 -
b1001 ,
b1001 %
b1001 '
b1001 8
#138
b100 !
b100 *
b100 (
b100 0
b100 6
b10 1
b100 2
b1000 3
b10000 4
b10 .
b1010000 #
b10010 )
b10010 -
b1010 ,
b1010 %
b1010 '
b1010 8
#139
b110 !
b110 *
b110 (
b110 0
b110 6
b11 1
b110 2
b1100 3
b11000 4
b11 .
b1011000 #
b10011 )
b10011 -
b1011 ,
b1011 %
b1011 '
b1011 8
#140
b1000 !
b1000 *
b1000 (
b1000 0
b1000 6
b100 1
b1000 2
b10000 3
b100000 4
b100 .
b1100000 #
b10100 )
b10100 -
b1100 ,
b1100 %
b1100 '
b1100 8
#141
b1010 !
b1010 *
b1010 (
b1010 0
b1010 6
b101 1
b1010 2
b10100 3
b101000 4
b101 .
b1101000 #
b10101 )
b10101 -
b1101 ,
b1101 %
b1101 '
b1101 8
