DT_HA07+08_SV_V2/multiplexer_tb.vcd
$date
	Sat Dec 16 19:21:19 2023
$end
$version
	Icarus Verilog
$end
$timescale
	1ns
$end
$scope module multiplexer_tb $end
$var wire 8 ! y [7:0] $end
$var wire 8 " x [7:0] $end
$var reg 1 # ERROR1 $end
$var reg 1 $ ERROR2 $end
$var reg 8 % m0 [7:0] $end
$var reg 8 & m1 [7:0] $end
$var reg 8 ' n0 [7:0] $end
$var reg 8 ( n1 [7:0] $end
$var reg 8 ) n2 [7:0] $end
$var reg 8 * n3 [7:0] $end
$var reg 1 + s $end
$var reg 2 , t [1:0] $end
$scope module uut1 $end
$var wire 8 - m0 [7:0] $end
$var wire 8 . m1 [7:0] $end
$var wire 1 + s $end
$var reg 8 / out [7:0] $end
$upscope $end
$scope module uut2 $end
$var wire 8 0 m0 [7:0] $end
$var wire 8 1 m1 [7:0] $end
$var wire 8 2 m2 [7:0] $end
$var wire 8 3 m3 [7:0] $end
$var wire 2 4 s [1:0] $end
$var reg 8 5 out [7:0] $end
$upscope $end
$scope begin $ivl_for_loop0 $end
$var integer 32 6 i [31:0] $end
$scope begin $ivl_for_loop1 $end
$var integer 32 7 j [31:0] $end
$scope begin $ivl_for_loop2 $end
$var integer 32 8 k [31:0] $end
$upscope $end
$upscope $end
$upscope $end
$scope begin $ivl_for_loop3 $end
$var integer 32 9 i [31:0] $end
$scope begin $ivl_for_loop4 $end
$var integer 32 : j [31:0] $end
$scope begin $ivl_for_loop5 $end
$var integer 32 ; k [31:0] $end
$scope begin $ivl_for_loop6 $end
$var integer 32 < l [31:0] $end
$scope begin $ivl_for_loop7 $end
$var integer 32 = m [31:0] $end
$upscope $end
$upscope $end
$upscope $end
$upscope $end
$upscope $end
$upscope $end
$enddefinitions $end
$comment Show the parameter values. $end
$dumpall
$end
#0
$dumpvars
b0 =
b0 <
b0 ;
b0 :
b0 9
b0 8
b0 7
b0 6
bx 5
bx 4
bx 3
bx 2
bx 1
bx 0
b0 /
b0 .
b0 -
bx ,
0+
bx *
bx )
bx (
bx '
b0 &
b0 %
x$
0#
b0 "
bx !
$end
#1
1+
b1 8
#2
0+
b1 &
b1 .
b1 7
b0 8
#3
b1 "
b1 /
1+
b1 8
#4
b0 "
b0 /
0+
b10 &
b10 .
b10 7
b0 8
#5
b10 "
b10 /
1+
b1 8
#6
b0 "
b0 /
0+
b11 &
b11 .
b11 7
b0 8
#7
b11 "
b11 /
1+
b1 8
#8
b0 "
b0 /
0+
b100 &
b100 .
b100 7
b0 8
#9
b100 "
b100 /
1+
b1 8
#10
b0 "
b0 /
0+
b101 &
b101 .
b101 7
b0 8
#11
b101 "
b101 /
1+
b1 8
#12
b0 "
b0 /
0+
b110 &
b110 .
b110 7
b0 8
#13
b110 "
b110 /
1+
b1 8
#14
b0 "
b0 /
0+
b111 &
b111 .
b111 7
b0 8
#15
b111 "
b111 /
1+
b1 8
#16
b0 "
b0 /
0+
b1000 &
b1000 .
b1000 7
b0 8
#17
b1000 "
b1000 /
1+
b1 8
#18
b0 "
b0 /
0+
b1001 &
b1001 .
b1001 7
b0 8
#19
b1001 "
b1001 /
1+
b1 8
#20
b0 "
b0 /
0+
b1010 &
b1010 .
b1010 7
b0 8
#21
b1010 "
b1010 /
1+
b1 8
#22
b0 "
b0 /
0+
b1011 &
b1011 .
b1011 7
b0 8
#23
b1011 "
b1011 /
1+
b1 8
#24
b0 "
b0 /
0+
b1100 &
b1100 .
b1100 7
b0 8
#25
b1100 "
b1100 /
1+
b1 8
#26
b0 "
b0 /
0+
b1101 &
b1101 .
b1101 7
b0 8
#27
b1101 "
b1101 /
1+
b1 8
#28
b0 "
b0 /
0+
b1110 &
b1110 .
b1110 7
b0 8
#29
b1110 "
b1110 /
1+
b1 8
#30
b0 "
b0 /
0+
b1111 &
b1111 .
b1111 7
b0 8
#31
b1111 "
b1111 /
1+
b1 8
#32
b0 "
b0 /
0+
b10000 &
b10000 .
b10000 7
b0 8
#33
b10000 "
b10000 /
1+
b1 8
#34
b0 "
b0 /
0+
b10001 &
b10001 .
b10001 7
b0 8
#35
b10001 "
b10001 /
1+
b1 8
#36
b0 "
b0 /
0+
b10010 &
b10010 .
b10010 7
b0 8
#37
b10010 "
b10010 /
1+
b1 8
#38
b0 "
b0 /
0+
b10011 &
b10011 .
b10011 7
b0 8
#39
b10011 "
b10011 /
1+
b1 8
#40
b0 "
b0 /
0+
b10100 &
b10100 .
b10100 7
b0 8
#41
b10100 "
b10100 /
1+
b1 8
#42
b0 "
b0 /
0+
b10101 &
b10101 .
b10101 7
b0 8
#43
b10101 "
b10101 /
1+
b1 8
#44
b0 "
b0 /
0+
b10110 &
b10110 .
b10110 7
b0 8
#45
b10110 "
b10110 /
1+
b1 8
#46
b0 "
b0 /
0+
b10111 &
b10111 .
b10111 7
b0 8
#47
b10111 "
b10111 /
1+
b1 8
#48
b0 "
b0 /
0+
b11000 &
b11000 .
b11000 7
b0 8
#49
b11000 "
b11000 /
1+
b1 8
#50
b0 "
b0 /
0+
b11001 &
b11001 .
b11001 7
b0 8
#51
b11001 "
b11001 /
1+
b1 8
#52
b0 "
b0 /
0+
b11010 &
b11010 .
b11010 7
b0 8
#53
b11010 "
b11010 /
1+
b1 8
#54
b0 "
b0 /
0+
b11011 &
b11011 .
b11011 7
b0 8
#55
b11011 "
b11011 /
1+
b1 8
#56
b0 "
b0 /
0+
b11100 &
b11100 .
b11100 7
b0 8
#57
b11100 "
b11100 /
1+
b1 8
#58
b0 "
b0 /
0+
b11101 &
b11101 .
b11101 7
b0 8
#59
b11101 "
b11101 /
1+
b1 8
#60
b0 "
b0 /
0+
b11110 &
b11110 .
b11110 7
b0 8
#61
b11110 "
b11110 /
1+
b1 8
#62
b0 "
b0 /
0+
b11111 &
b11111 .
b11111 7
b0 8
#63
b11111 "
b11111 /
1+
b1 8
#64
b0 "
b0 /
0+
b100000 &
b100000 .
b100000 7
b0 8
#65
b100000 "
b100000 /
1+
b1 8
#66
b0 "
b0 /
0+
b100001 &
b100001 .
b100001 7
b0 8
#67
b100001 "
b100001 /
1+
b1 8
#68
b0 "
b0 /
0+
b100010 &
b100010 .
b100010 7
b0 8
#69
b100010 "
b100010 /
1+
b1 8
#70
b0 "
b0 /
0+
b100011 &
b100011 .
b100011 7
b0 8
#71
b100011 "
b100011 /
1+
b1 8
#72
b0 "
b0 /
0+
b100100 &
b100100 .
b100100 7
b0 8
#73
b100100 "
b100100 /
1+
b1 8
#74
b0 "
b0 /
0+
b100101 &
b100101 .
b100101 7
b0 8
#75
b100101 "
b100101 /
1+
b1 8
#76
b0 "
b0 /
0+
b100110 &
b100110 .
b100110 7
b0 8
#77
b100110 "
b100110 /
1+
b1 8
#78
b0 "
b0 /
0+
b100111 &
b100111 .
b100111 7
b0 8
#79
b100111 "
b100111 /
1+
b1 8
#80
b0 "
b0 /
0+
b101000 &
b101000 .
b101000 7
b0 8
#81
b101000 "
b101000 /
1+
b1 8
#82
b0 "
b0 /
0+
b101001 &
b101001 .
b101001 7
b0 8
#83
b101001 "
b101001 /
1+
b1 8
#84
b0 "
b0 /
0+
b101010 &
b101010 .
b101010 7
b0 8
#85
b101010 "
b101010 /
1+
b1 8
#86
b0 "
b0 /
0+
b101011 &
b101011 .
b101011 7
b0 8
#87
b101011 "
b101011 /
1+
b1 8
#88
b0 "
b0 /
0+
b101100 &
b101100 .
b101100 7
b0 8
#89
b101100 "
b101100 /
1+
b1 8
#90
b0 "
b0 /
0+
b101101 &
b101101 .
b101101 7
b0 8
#91
b101101 "
b101101 /
1+
b1 8
#92
b0 "
b0 /
0+
b101110 &
b101110 .
b101110 7
b0 8
#93
b101110 "
b101110 /
1+
b1 8
#94
b0 "
b0 /
0+
b101111 &
b101111 .
b101111 7
b0 8
#95
b101111 "
b101111 /
1+
b1 8
#96
b0 "
b0 /
0+
b110000 &
b110000 .
b110000 7
b0 8
#97
b110000 "
b110000 /
1+
b1 8
#98
b0 "
b0 /
0+
b110001 &
b110001 .
b110001 7
b0 8
#99
b110001 "
b110001 /
1+
b1 8
#100
b0 "
b0 /
0+
b110010 &
b110010 .
b110010 7
b0 8
#101
b110010 "
b110010 /
1+
b1 8
#102
b0 "
b0 /
0+
b110011 &
b110011 .
b110011 7
b0 8
#103
b110011 "
b110011 /
1+
b1 8
#104
b0 "
b0 /
0+
b110100 &
b110100 .
b110100 7
b0 8
#105
b110100 "
b110100 /
1+
b1 8
#106
b0 "
b0 /
0+
b110101 &
b110101 .
b110101 7
b0 8
#107
b110101 "
b110101 /
1+
b1 8
#108
b0 "
b0 /
0+
b110110 &
b110110 .
b110110 7
b0 8
#109
b110110 "
b110110 /
1+
b1 8
#110
b0 "
b0 /
0+
b110111 &
b110111 .
b110111 7
b0 8
#111
b110111 "
b110111 /
1+
b1 8
#112
b0 "
b0 /
0+
b111000 &
b111000 .
b111000 7
b0 8
#113
b111000 "
b111000 /
1+
b1 8
#114
b0 "
b0 /
0+
b111001 &
b111001 .
b111001 7
b0 8
#115
b111001 "
b111001 /
1+
b1 8
#116
b0 "
b0 /
0+
b111010 &
b111010 .
b111010 7
b0 8
#117
b111010 "
b111010 /
1+
b1 8
#118
b0 "
b0 /
0+
b111011 &
b111011 .
b111011 7
b0 8
#119
b111011 "
b111011 /
1+
b1 8
#120
b0 "
b0 /
0+
b111100 &
b111100 .
b111100 7
b0 8
#121
b111100 "
b111100 /
1+
b1 8
#122
b0 "
b0 /
0+
b111101 &
b111101 .
b111101 7
b0 8
#123
b111101 "
b111101 /
1+
b1 8
#124
b0 "
b0 /
0+
b111110 &
b111110 .
b111110 7
b0 8
#125
b111110 "
b111110 /
1+
b1 8
#126
b0 "
b0 /
0+
b111111 &
b111111 .
b111111 7
b0 8
#127
b111111 "
b111111 /
1+
b1 8
#128
b1 "
b1 /
0+
b0 &
b0 .
b1 %
b1 -
b1 6
b0 7
b0 8
#129
b0 "
b0 /
1+
b1 8
#130
b1 "
b1 /
0+
b1 &
b1 .
b1 7
b0 8
#131
1+
b1 8
#132
0+
b10 &
b10 .
b10 7
b0 8
#133
b10 "
b10 /
1+
b1 8
#134
b1 "
b1 /
0+
b11 &
b11 .
b11 7
b0 8
#135
b11 "
b11 /
1+
b1 8
#136
b1 "
b1 /
0+
b100 &
b100 .
b100 7
b0 8
#137
b100 "
b100 /
1+
b1 8
#138
b1 "
b1 /
0+
b101 &
b101 .
b101 7
b0 8
#139
b101 "
b101 /
1+
b1 8
#140
b1 "
b1 /
0+
b110 &
b110 .
b110 7
b0 8
#141
b110 "
b110 /
1+
b1 8
#142
b1 "
b1 /
0+
b111 &
b111 .
b111 7
b0 8
#143
b111 "
b111 /
1+
b1 8
#144
b1 "
b1 /
0+
b1000 &
b1000 .
b1000 7
b0 8
#145
b1000 "
b1000 /
1+
b1 8
#146
b1 "
b1 /
0+
b1001 &
b1001 .
b1001 7
b0 8
#147
b1001 "
b1001 /
1+
b1 8
#148
b1 "
b1 /
0+
b1010 &
b1010 .
b1010 7
b0 8
#149
b1010 "
b1010 /
1+
b1 8
#150
b1 "
b1 /
0+
b1011 &
b1011 .
b1011 7
b0 8
#151
b1011 "
b1011 /
1+
b1 8
#152
b1 "
b1 /
0+
b1100 &
b1100 .
b1100 7
b0 8
#153
b1100 "
b1100 /
1+
b1 8
#154
b1 "
b1 /
0+
b1101 &
b1101 .
b1101 7
b0 8
#155
b1101 "
b1101 /
1+
b1 8
#156
b1 "
b1 /
0+
b1110 &
b1110 .
b1110 7
b0 8
#157
b1110 "
b1110 /
1+
b1 8
#158
b1 "
b1 /
0+
b1111 &
b1111 .
b1111 7
b0 8
#159
b1111 "
b1111 /
1+
b1 8
#160
b1 "
b1 /
0+
b10000 &
b10000 .
b10000 7
b0 8
#161
b10000 "
b10000 /
1+
b1 8
#162
b1 "
b1 /
0+
b10001 &
b10001 .
b10001 7
b0 8
#163
b10001 "
b10001 /
1+
b1 8
#164
b1 "
b1 /
0+
b10010 &
b10010 .
b10010 7
b0 8
#165
b10010 "
b10010 /
1+
b1 8
#166
b1 "
b1 /
0+
b10011 &
b10011 .
b10011 7
b0 8
#167
b10011 "
b10011 /
1+
b1 8
#168
b1 "
b1 /
0+
b10100 &
b10100 .
b10100 7
b0 8
#169
b10100 "
b10100 /
1+
b1 8
#170
b1 "
b1 /
0+
b10101 &
b10101 .
b10101 7
b0 8
#171
b10101 "
b10101 /
1+
b1 8
#172
b1 "
b1 /
0+
b10110 &
b10110 .
b10110 7
b0 8
#173
b10110 "
b10110 /
1+
b1 8
#174
b1 "
b1 /
0+
b10111 &
b10111 .
b10111 7
b0 8
#175
b10111 "
b10111 /
1+
b1 8
#176
b1 "
b1 /
0+
b11000 &
b11000 .
b11000 7
b0 8
#177
b11000 "
b11000 /
1+
b1 8
#178
b1 "
b1 /
0+
b11001 &
b11001 .
b11001 7
b0 8
#179
b11001 "
b11001 /
1+
b1 8
#180
b1 "
b1 /
0+
b11010 &
b11010 .
b11010 7
b0 8
#181
b11010 "
b11010 /
1+
b1 8
#182
b1 "
b1 /
0+
b11011 &
b11011 .
b11011 7
b0 8
#183
b11011 "
b11011 /
1+
b1 8
#184
b1 "
b1 /
0+
b11100 &
b11100 .
b11100 7
b0 8
#185
b11100 "
b11100 /
1+
b1 8
#186
b1 "
b1 /
0+
b11101 &
b11101 .
b11101 7
b0 8
#187
b11101 "
b11101 /
1+
b1 8
#188
b1 "
b1 /
0+
b11110 &
b11110 .
b11110 7
b0 8
#189
b11110 "
b11110 /
1+
b1 8
#190
b1 "
b1 /
0+
b11111 &
b11111 .
b11111 7
b0 8
#191
b11111 "
b11111 /
1+
b1 8
#192
b1 "
b1 /
0+
b100000 &
b100000 .
b100000 7
b0 8
#193
b100000 "
b100000 /
1+
b1 8
#194
b1 "
b1 /
0+
b100001 &
b100001 .
b100001 7
b0 8
#195
b100001 "
b100001 /
1+
b1 8
#196
b1 "
b1 /
0+
b100010 &
b100010 .
b100010 7
b0 8
#197
b100010 "
b100010 /
1+
b1 8
#198
b1 "
b1 /
0+
b100011 &
b100011 .
b100011 7
b0 8
#199
b100011 "
b100011 /
1+
b1 8
#200
b1 "
b1 /
0+
b100100 &
b100100 .
b100100 7
b0 8
#201
b100100 "
b100100 /
1+
b1 8
#202
b1 "
b1 /
0+
b100101 &
b100101 .
b100101 7
b0 8
#203
b100101 "
b100101 /
1+
b1 8
#204
b1 "
b1 /
0+
b100110 &
b100110 .
b100110 7
b0 8
#205
b100110 "
b100110 /
1+
b1 8
#206
b1 "
b1 /
0+
b100111 &
b100111 .
b100111 7
b0 8
#207
b100111 "
b100111 /
1+
b1 8
#208
b1 "
b1 /
0+
b101000 &
b101000 .
b101000 7
b0 8
#209
b101000 "
b101000 /
1+
b1 8
#210
b1 "
b1 /
0+
b101001 &
b101001 .
b101001 7
b0 8
#211
b101001 "
b101001 /
1+
b1 8
#212
b1 "
b1 /
0+
b101010 &
b101010 .
b101010 7
b0 8
#213
b101010 "
b101010 /
1+
b1 8
#214
b1 "
b1 /
0+
b101011 &
b101011 .
b101011 7
b0 8
#215
b101011 "
b101011 /
1+
b1 8
#216
b1 "
b1 /
0+
b101100 &
b101100 .
b101100 7
b0 8
#217
b101100 "
b101100 /
1+
b1 8
#218
b1 "
b1 /
0+
b101101 &
b101101 .
b101101 7
b0 8
#219
b101101 "
b101101 /
1+
b1 8
#220
b1 "
b1 /
0+
b101110 &
b101110 .
b101110 7
b0 8
#221
b101110 "
b101110 /
1+
b1 8
#222
b1 "
b1 /
0+
b101111 &
b101111 .
b101111 7
b0 8
#223
b101111 "
b101111 /
1+
b1 8
#224
b1 "
b1 /
0+
b110000 &
b110000 .
b110000 7
b0 8
#225
b110000 "
b110000 /
1+
b1 8
#226
b1 "
b1 /
0+
b110001 &
b110001 .
b110001 7
b0 8
#227
b110001 "
b110001 /
1+
b1 8
#228
b1 "
b1 /
0+
b110010 &
b110010 .
b110010 7
b0 8
#229
b110010 "
b110010 /
1+
b1 8
#230
b1 "
b1 /
0+
b110011 &
b110011 .
b110011 7
b0 8
#231
b110011 "
b110011 /
1+
b1 8
#232
b1 "
b1 /
0+
b110100 &
b110100 .
b110100 7
b0 8
#233
b110100 "
b110100 /
1+
b1 8
#234
b1 "
b1 /
0+
b110101 &
b110101 .
b110101 7
b0 8
#235
b110101 "
b110101 /
1+
b1 8
#236
b1 "
b1 /
0+
b110110 &
b110110 .
b110110 7
b0 8
#237
b110110 "
b110110 /
1+
b1 8
#238
b1 "
b1 /
0+
b110111 &
b110111 .
b110111 7
b0 8
#239
b110111 "
b110111 /
1+
b1 8
#240
b1 "
b1 /
0+
b111000 &
b111000 .
b111000 7
b0 8
#241
b111000 "
b111000 /
1+
b1 8
#242
b1 "
b1 /
0+
b111001 &
b111001 .
b111001 7
b0 8
#243
b111001 "
b111001 /
1+
b1 8
#244
b1 "
b1 /
0+
b111010 &
b111010 .
b111010 7
b0 8
#245
b111010 "
b111010 /
1+
b1 8
#246
b1 "
b1 /
0+
b111011 &
b111011 .
b111011 7
b0 8
#247
b111011 "
b111011 /
1+
b1 8
#248
b1 "
b1 /
0+
b111100 &
b111100 .
b111100 7
b0 8
#249
b111100 "
b111100 /
1+
b1 8
#250
b1 "
b1 /
0+
b111101 &
b111101 .
b111101 7
b0 8
#251
b111101 "
b111101 /
1+
b1 8
#252
b1 "
b1 /
0+
b111110 &
b111110 .
b111110 7
b0 8
#253
b111110 "
b111110 /
1+
b1 8
#254
b1 "
b1 /
0+
b111111 &
b111111 .
b111111 7
b0 8
#255
b111111 "
b111111 /
1+
b1 8
#256
b10 "
b10 /
0+
b0 &
b0 .
b10 %
b10 -
b10 6
b0 7
b0 8
#257
b0 "
b0 /
1+
b1 8
#258
b10 "
b10 /
0+
b1 &
b1 .
b1 7
b0 8
#259
b1 "
b1 /
1+
b1 8
#260
b10 "
b10 /
0+
b10 &
b10 .
b10 7
b0 8
#261
1+
b1 8
#262
0+
b11 &
b11 .
b11 7
b0 8
#263
b11 "
b11 /
1+
b1 8
#264
b10 "
b10 /
0+
b100 &
b100 .
b100 7
b0 8
#265
b100 "
b100 /
1+
b1 8
#266
b10 "
b10 /
0+
b101 &
b101 .
b101 7
b0 8
#267
b101 "
b101 /
1+
b1 8
#268
b10 "
b10 /
0+
b110 &
b110 .
b110 7
b0 8
#269
b110 "
b110 /
1+
b1 8
#270
b10 "
b10 /
0+
b111 &
b111 .
b111 7
b0 8
#271
b111 "
b111 /
1+
b1 8
#272
b10 "
b10 /
0+
b1000 &
b1000 .
b1000 7
b0 8
#273
b1000 "
b1000 /
1+
b1 8
#274
b10 "
b10 /
0+
b1001 &
b1001 .
b1001 7
b0 8
#275
b1001 "
b1001 /
1+
b1 8
#276
b10 "
b10 /
0+
b1010 &
b1010 .
b1010 7
b0 8
#277
b1010 "
b1010 /
1+
b1 8
#278
b10 "
b10 /
0+
b1011 &
b1011 .
b1011 7
b0 8
#279
b1011 "
b1011 /
1+
b1 8
#280
b10 "
b10 /
0+
b1100 &
b1100 .
b1100 7
b0 8
#281
b1100 "
b1100 /
1+
b1 8
#282
b10 "
b10 /
0+
b1101 &
b1101 .
b1101 7
b0 8
#283
b1101 "
b1101 /
1+
b1 8
#284
b10 "
b10 /
0+
b1110 &
b1110 .
b1110 7
b0 8
#285
b1110 "
b1110 /
1+
b1 8
#286
b10 "
b10 /
0+
b1111 &
b1111 .
b1111 7
b0 8
#287
b1111 "
b1111 /
1+
b1 8
#288
b10 "
b10 /
0+
b10000 &
b10000 .
b10000 7
b0 8
#289
b10000 "
b10000 /
1+
b1 8
#290
b10 "
b10 /
0+
b10001 &
b10001 .
b10001 7
b0 8
#291
b10001 "
b10001 /
1+
b1 8
#292
b10 "
b10 /
0+
b10010 &
b10010 .
b10010 7
b0 8
#293
b10010 "
b10010 /
1+
b1 8
#294
b10 "
b10 /
0+
b10011 &
b10011 .
b10011 7
b0 8
#295
b10011 "
b10011 /
1+
b1 8
#296
b10 "
b10 /
0+
b10100 &
b10100 .
b10100 7
b0 8
#297
b10100 "
b10100 /
1+
b1 8
#298
b10 "
b10 /
0+
b10101 &
b10101 .
b10101 7
b0 8
#299
b10101 "
b10101 /
1+
b1 8
#300
b10 "
b10 /
0+
b10110 &
b10110 .
b10110 7
b0 8
#301
b10110 "
b10110 /
1+
b1 8
#302
b10 "
b10 /
0+
b10111 &
b10111 .
b10111 7
b0 8
#303
b10111 "
b10111 /
1+
b1 8
#304
b10 "
b10 /
0+
b11000 &
b11000 .
b11000 7
b0 8
#305
b11000 "
b11000 /
1+
b1 8
#306
b10 "
b10 /
0+
b11001 &
b11001 .
b11001 7
b0 8
#307
b11001 "
b11001 /
1+
b1 8
#308
b10 "
b10 /
0+
b11010 &
b11010 .
b11010 7
b0 8
#309
b11010 "
b11010 /
1+
b1 8
#310
b10 "
b10 /
0+
b11011 &
b11011 .
b11011 7
b0 8
#311
b11011 "
b11011 /
1+
b1 8
#312
b10 "
b10 /
0+
b11100 &
b11100 .
b11100 7
b0 8
#313
b11100 "
b11100 /
1+
b1 8
#314
b10 "
b10 /
0+
b11101 &
b11101 .
b11101 7
b0 8
#315
b11101 "
b11101 /
1+
b1 8
#316
b10 "
b10 /
0+
b11110 &
b11110 .
b11110 7
b0 8
#317
b11110 "
b11110 /
1+
b1 8
#318
b10 "
b10 /
0+
b11111 &
b11111 .
b11111 7
b0 8
#319
b11111 "
b11111 /
1+
b1 8
#320
b10 "
b10 /
0+
b100000 &
b100000 .
b100000 7
b0 8
#321
b100000 "
b100000 /
1+
b1 8
#322
b10 "
b10 /
0+
b100001 &
b100001 .
b100001 7
b0 8
#323
b100001 "
b100001 /
1+
b1 8
#324
b10 "
b10 /
0+
b100010 &
b100010 .
b100010 7
b0 8
#325
b100010 "
b100010 /
1+
b1 8
#326
b10 "
b10 /
0+
b100011 &
b100011 .
b100011 7
b0 8
#327
b100011 "
b100011 /
1+
b1 8
#328
b10 "
b10 /
0+
b100100 &
b100100 .
b100100 7
b0 8
#329
b100100 "
b100100 /
1+
b1 8
#330
b10 "
b10 /
0+
b100101 &
b100101 .
b100101 7
b0 8
#331
b100101 "
b100101 /
1+
b1 8
#332
b10 "
b10 /
0+
b100110 &
b100110 .
b100110 7
b0 8
#333
b100110 "
b100110 /
1+
b1 8
#334
b10 "
b10 /
0+
b100111 &
b100111 .
b100111 7
b0 8
#335
b100111 "
b100111 /
1+
b1 8
#336
b10 "
b10 /
0+
b101000 &
b101000 .
b101000 7
b0 8
#337
b101000 "
b101000 /
1+
b1 8
#338
b10 "
b10 /
0+
b101001 &
b101001 .
b101001 7
b0 8
#339
b101001 "
b101001 /
1+
b1 8
#340
b10 "
b10 /
0+
b101010 &
b101010 .
b101010 7
b0 8
#341
b101010 "
b101010 /
1+
b1 8
#342
b10 "
b10 /
0+
b101011 &
b101011 .
b101011 7
b0 8
#343
b101011 "
b101011 /
1+
b1 8
#344
b10 "
b10 /
0+
b101100 &
b101100 .
b101100 7
b0 8
#345
b101100 "
b101100 /
1+
b1 8
#346
b10 "
b10 /
0+
b101101 &
b101101 .
b101101 7
b0 8
#347
b101101 "
b101101 /
1+
b1 8
#348
b10 "
b10 /
0+
b101110 &
b101110 .
b101110 7
b0 8
#349
b101110 "
b101110 /
1+
b1 8
#350
b10 "
b10 /
0+
b101111 &
b101111 .
b101111 7
b0 8
#351
b101111 "
b101111 /
1+
b1 8
#352
b10 "
b10 /
0+
b110000 &
b110000 .
b110000 7
b0 8
#353
b110000 "
b110000 /
1+
b1 8
#354
b10 "
b10 /
0+
b110001 &
b110001 .
b110001 7
b0 8
#355
b110001 "
b110001 /
1+
b1 8
#356
b10 "
b10 /
0+
b110010 &
b110010 .
b110010 7
b0 8
#357
b110010 "
b110010 /
1+
b1 8
#358
b10 "
b10 /
0+
b110011 &
b110011 .
b110011 7
b0 8
#359
b110011 "
b110011 /
1+
b1 8
#360
b10 "
b10 /
0+
b110100 &
b110100 .
b110100 7
b0 8
#361
b110100 "
b110100 /
1+
b1 8
#362
b10 "
b10 /
0+
b110101 &
b110101 .
b110101 7
b0 8
#363
b110101 "
b110101 /
1+
b1 8
#364
b10 "
b10 /
0+
b110110 &
b110110 .
b110110 7
b0 8
#365
b110110 "
b110110 /
1+
b1 8
#366
b10 "
b10 /
0+
b110111 &
b110111 .
b110111 7
b0 8
#367
b110111 "
b110111 /
1+
b1 8
#368
b10 "
b10 /
0+
b111000 &
b111000 .
b111000 7
b0 8
#369
b111000 "
b111000 /
1+
b1 8
#370
b10 "
b10 /
0+
b111001 &
b111001 .
b111001 7
b0 8
#371
b111001 "
b111001 /
1+
b1 8
#372
b10 "
b10 /
0+
b111010 &
b111010 .
b111010 7
b0 8
#373
b111010 "
b111010 /
1+
b1 8
#374
b10 "
b10 /
0+
b111011 &
b111011 .
b111011 7
b0 8
#375
b111011 "
b111011 /
1+
b1 8
#376
b10 "
b10 /
0+
b111100 &
b111100 .
b111100 7
b0 8
#377
b111100 "
b111100 /
1+
b1 8
#378
b10 "
b10 /
0+
b111101 &
b111101 .
b111101 7
b0 8
#379
b111101 "
b111101 /
1+
b1 8
#380
b10 "
b10 /
0+
b111110 &
b111110 .
b111110 7
b0 8
#381
b111110 "
b111110 /
1+
b1 8
#382
b10 "
b10 /
0+
b111111 &
b111111 .
b111111 7
b0 8
#383
b111111 "
b111111 /
1+
b1 8
#384
b11 "
b11 /
0+
b0 &
b0 .
b11 %
b11 -
b11 6
b0 7
b0 8
#385
b0 "
b0 /
1+
b1 8
#386
b11 "
b11 /
0+
b1 &
b1 .
b1 7
b0 8
#387
b1 "
b1 /
1+
b1 8
#388
b11 "
b11 /
0+
b10 &
b10 .
b10 7
b0 8
#389
b10 "
b10 /
1+
b1 8
#390
b11 "
b11 /
0+
b11 &
b11 .
b11 7
b0 8
#391
1+
b1 8
#392
0+
b100 &
b100 .
b100 7
b0 8
#393
b100 "
b100 /
1+
b1 8
#394
b11 "
b11 /
0+
b101 &
b101 .
b101 7
b0 8
#395
b101 "
b101 /
1+
b1 8
#396
b11 "
b11 /
0+
b110 &
b110 .
b110 7
b0 8
#397
b110 "
b110 /
1+
b1 8
#398
b11 "
b11 /
0+
b111 &
b111 .
b111 7
b0 8
#399
b111 "
b111 /
1+
b1 8
#400
b11 "
b11 /
0+
b1000 &
b1000 .
b1000 7
b0 8
#401
b1000 "
b1000 /
1+
b1 8
#402
b11 "
b11 /
0+
b1001 &
b1001 .
b1001 7
b0 8
#403
b1001 "
b1001 /
1+
b1 8
#404
b11 "
b11 /
0+
b1010 &
b1010 .
b1010 7
b0 8
#405
b1010 "
b1010 /
1+
b1 8
#406
b11 "
b11 /
0+
b1011 &
b1011 .
b1011 7
b0 8
#407
b1011 "
b1011 /
1+
b1 8
#408
b11 "
b11 /
0+
b1100 &
b1100 .
b1100 7
b0 8
#409
b1100 "
b1100 /
1+
b1 8
#410
b11 "
b11 /
0+
b1101 &
b1101 .
b1101 7
b0 8
#411
b1101 "
b1101 /
1+
b1 8
#412
b11 "
b11 /
0+
b1110 &
b1110 .
b1110 7
b0 8
#413
b1110 "
b1110 /
1+
b1 8
#414
b11 "
b11 /
0+
b1111 &
b1111 .
b1111 7
b0 8
#415
b1111 "
b1111 /
1+
b1 8
#416
b11 "
b11 /
0+
b10000 &
b10000 .
b10000 7
b0 8
#417
b10000 "
b10000 /
1+
b1 8
#418
b11 "
b11 /
0+
b10001 &
b10001 .
b10001 7
b0 8
#419
b10001 "
b10001 /
1+
b1 8
#420
b11 "
b11 /
0+
b10010 &
b10010 .
b10010 7
b0 8
#421
b10010 "
b10010 /
1+
b1 8
#422
b11 "
b11 /
0+
b10011 &
b10011 .
b10011 7
b0 8
#423
b10011 "
b10011 /
1+
b1 8
#424
b11 "
b11 /
0+
b10100 &
b10100 .
b10100 7
b0 8
#425
b10100 "
b10100 /
1+
b1 8
#426
b11 "
b11 /
0+
b10101 &
b10101 .
b10101 7
b0 8
#427
b10101 "
b10101 /
1+
b1 8
#428
b11 "
b11 /
0+
b10110 &
b10110 .
b10110 7
b0 8
#429
b10110 "
b10110 /
1+
b1 8
#430
b11 "
b11 /
0+
b10111 &
b10111 .
b10111 7
b0 8
#431
b10111 "
b10111 /
1+
b1 8
#432
b11 "
b11 /
0+
b11000 &
b11000 .
b11000 7
b0 8
#433
b11000 "
b11000 /
1+
b1 8
#434
b11 "
b11 /
0+
b11001 &
b11001 .
b11001 7
b0 8
#435
b11001 "
b11001 /
1+
b1 8
#436
b11 "
b11 /
0+
b11010 &
b11010 .
b11010 7
b0 8
#437
b11010 "
b11010 /
1+
b1 8
#438
b11 "
b11 /
0+
b11011 &
b11011 .
b11011 7
b0 8
#439
b11011 "
b11011 /
1+
b1 8
#440
b11 "
b11 /
0+
b11100 &
b11100 .
b11100 7
b0 8
#441
b11100 "
b11100 /
1+
b1 8
#442
b11 "
b11 /
0+
b11101 &
b11101 .
b11101 7
b0 8
#443
b11101 "
b11101 /
1+
b1 8
#444
b11 "
b11 /
0+
b11110 &
b11110 .
b11110 7
b0 8
#445
b11110 "
b11110 /
1+
b1 8
#446
b11 "
b11 /
0+
b11111 &
b11111 .
b11111 7
b0 8
#447
b11111 "
b11111 /
1+
b1 8
#448
b11 "
b11 /
0+
b100000 &
b100000 .
b100000 7
b0 8
#449
b100000 "
b100000 /
1+
b1 8
#450
b11 "
b11 /
0+
b100001 &
b100001 .
b100001 7
b0 8
#451
b100001 "
b100001 /
1+
b1 8
#452
b11 "
b11 /
0+
b100010 &
b100010 .
b100010 7
b0 8
#453
b100010 "
b100010 /
1+
b1 8
#454
b11 "
b11 /
0+
b100011 &
b100011 .
b100011 7
b0 8
#455
b100011 "
b100011 /
1+
b1 8
